{
  "scopeName": "jrag.injection",
  "injectionSelector": "L:source.java",
  "patterns": [
    { "include": "#comment-multiline" },
    { "include": "#comment-singleline" },
    { "include": "#imports" },
    { "include": "#aspect" }
  ],
  "repository": {
    "comment-multiline": {
      "begin": "/\\*",
      "end": "\\*/",
      "name": "comment.block.javadoc.java"
    },
    "comment-singleline": {
      "match": "//[^\n]*",
      "name": "comment.line.double-slash.java"
    },
		"imports": {
			"match": "import",
			"name": "keyword.other.import.java"
		},
    "aspect": {
      "begin": "(aspect)(\\s+)([a-zA-Z][_a-zA-Z0-9]*)(\\s*)({)",

			"beginCaptures": {
				"1": { "name": "storage.modifier.java"},
				"3": { "name": "entity.name.type.class.java"},
				"5": { "name": "punctuation.section.class.begin.bracket.curly.java"}
			},
			"end": "(})",
			"endCaptures": {
				"0": { "name": "punctuation.section.class.end.bracket.curly.java" }
			},
			"name": "meta.class.java",
			"contentName": "jrag.type-body.jrag",
			"patterns": [
        { "include": "#rewrite" },
				{
					"begin": "{",
					"end": "}",
					"name": "jrag.function-body.jrag",
					"patterns": [
						{ "include": "source.java" }
					]
				},
				{ "include": "#added-modifiers" },
				{ "include": "#added-keywords" },
				{ "include": "#type-access" },
				{ "include": "source.java" }
			]
    },
    "rewrite": {
      "begin": "(rewrite)(\\s+)([a-zA-Z][a-zA-Z0-9]*)(\\s*)({)",
      "beginCaptures": {
        "1": { "name": "keyword.control.java"},
        "3": { "name": "entity.name.type.class.java"},
        "5": { "name": "punctuation.section.class.begin.bracket.curly.java"}
      },
      "end": "(})",
      "endCaptures": {
        "0": { "name": "punctuation.section.class.end.bracket.curly.java" }
      },
      "patterns": [
        {
          "begin": "(to)(\\s+)([a-zA-Z][a-zA-Z0-9]*)(\\s*)({)",
          "beginCaptures": {
            "1": { "name": "keyword.control.java"},
            "3": { "name": "entity.name.type.class.java"},
            "5": { "name": "punctuation.section.class.begin.bracket.curly.java"}
          },
          "end": "(})",
          "endCaptures": {
            "0": { "name": "punctuation.section.class.end.bracket.curly.java" }
          },
					"name": "jrag.function-body.jrag",
					"patterns": [
						{ "include": "source.java" }
					]
        },
        { "include": "#added-modifiers" },
        { "include": "#added-keywords" },
        { "include": "source.java" }
      ]
    },
		"added-modifiers": {
			"match": "(nta|syn|eq|lazy|circular|inh|coll|cache|uncache|refine|root|with)(?=[^a-zA-Z0-9])",
			"name": "storage.modifier.java"
		},
		"added-keywords": {
			"match": "(contributes|when|to|for|each|rewrite)(?=[^a-zA-Z])",
			"name": "keyword.control.java"
		},
		"type-access": {
			"begin": "([A-Z][a-zA-Z0-9]*)(\\.)([a-zA-Z][a-zA-Z0-9]*)(\\()",
			"beginCaptures": {
				"1": { "name": "storage.type.java" },
				"3": { "name": "entity.name.function.java" }
			},
			"end": "\\)",
			"patterns": [
				{ "include": "source.java" }
			]
		}
  }
}
